<?xml version="1.0" encoding="UTF-8"?>
<CustomTab xmlns="http://soap.sforce.com/2006/04/metadata">
    <frameHeight>800</frameHeight>
    <hasSidebar>false</hasSidebar>
    <label>CI Radar Leads</label>
    <mobileReady>false</mobileReady>
    <motif>Custom41: Stack of Cash</motif>
    <url>https://my.ciradar.com/views/SalesView.aspx?ExternalKey={!Organization.Id}&amp;Height=700</url>
    <urlEncodingKey>UTF-8</urlEncodingKey>
</CustomTab>
