<?xml version="1.0" encoding="UTF-8"?>
<CustomTab xmlns="http://soap.sforce.com/2006/04/metadata">
    <customObject>true</customObject>
    <description>Sales Orders can contain orders, invoices, quotes, etc.</description>
    <mobileReady>false</mobileReady>
    <motif>Custom18: Form</motif>
</CustomTab>
